{
  "name": "SellerToken",
  "base": "AccessToken",
  "idInjection": false,
  "options": {
    "validateUpsert": true
  },
  "properties": {
    "id": {
      "type": "string",
      "id": true
    },
    "userId": {
      "type":"number",
      "index":true
    },
    "sellerUUID": {
      "type": "string",
      "index": true
    },
    "expired": {
      "type": "number",
      "expired": true
    },
    "ttl": {
      "type": "number",
      "ttl": true,
      "default": 1209600
    }
  },
  "hidden":["userId"],
  "validations": [],
  "relations": {
    "user": {
      "type": "belongsTo",
      "model": "Sellers",
      "foreignKey": "userId"
    }
  },
  "acls": [],
  "methods": []
}